<svg width="22" height="30" viewBox="0 0 22 30" fill="none" xmlns="http://www.w3.org/2000/svg">
<g clip-path="url(#clip0)">
<path d="M11 0C13.9174 0 16.7153 1.1552 18.7782 3.21147C20.8411 5.26774 22 8.05664 22 10.9646C22 17.0201 11.1415 30.038 11 30C10.8585 29.962 0 17.0201 0 10.9646C0 8.05664 1.15893 5.26774 3.22183 3.21147C5.28473 1.1552 8.08262 0 11 0V0Z" fill="#438042"/>
<path d="M11 16.0816C13.8351 16.0816 16.1334 13.7907 16.1334 10.9647C16.1334 8.13879 13.8351 5.8479 11 5.8479C8.16497 5.8479 5.8667 8.13879 5.8667 10.9647C5.8667 13.7907 8.16497 16.0816 11 16.0816Z" fill="white"/>
</g>
<defs>
<clipPath id="clip0">
<rect width="22" height="30" fill="white"/>
</clipPath>
</defs>
</svg>
